A/B Testing
…
As we can see the conversion is not changing by much over the weekdays.

clicks %>%
  group_by(week(visit_date)) %>%
  summarise(conversion_rate = mean(clicked_adopt_today))

## # A tibble: 53 x 2
##    `week(visit_date)` conversion_rate
##                 <dbl>           <dbl>
##  1                 1.           0.229
##  2                 2.           0.243
##  3                 3.           0.171
##  4                 4.           0.129
##  5                 5.           0.157
##  6                 6.           0.186
##  7                 7.           0.257
##  8                 8.           0.171
##  9                 9.           0.186
## 10                10.           0.200
## # ... with 43 more rows
…
